<?xml version="1.0" encoding="UTF-8" standalone="no"?>
<svg xmlns="http://www.w3.org/2000/svg" version="1.1" width="300" height="250">
  <path
     d="M 108.2,48.41 C 111.3,105 130.1,130.1 150,153 169.9,130.1 188.7,105 191.8,48.41 z"
     id="birdback"
     style="fill:#000066;fill-opacity:1;stroke:none" />
  <path
     d="m 176.7,56.11 c -8.4,5.3 -7.2,22.4 -12.9,25.6 -0.6,0.4 -1.3,0.3 -2,0.6 -4.5,1.8 -7.9,8.1 -11.8,8.1 -2.6,0.1 -9.1,-8 -9.1,-8 -0.5,-0.3 -1.9,-0.6 -2.6,-1.4 -5.4,-7.8 -10.4,-24.6 -13.4,-23 -1.7,0.6 1.3,7 4.5,12.9 2.4,4.5 5.3,7.5 4.6,8 -0.6,0.4 -3,-3.2 -5.3,-7.7 -2.5,-4.9 -5,-10.9 -6.7,-9.8 -1,0.6 0,2.2 0.6,3.5 -1.3,0.2 -2.3,0.7 -2.5,1.6 -0.7,3.6 1.5,4.9 2.6,7 -1.5,-1.2 -3.7,-2.1 -3.5,-0.3 0.5,2.2 2.1,5.1 3.7,6.1 -4,2.3 1.2,4.3 2.4,6.3 -0.8,2.2 0.4,3.5 2.5,4.5 -4.6,4.1 3.2,3.4 3.9,4.9 -0.2,2 0.9,3.1 2.3,4.12 -2.6,2.37 -1,2.67 1,2.67 -1,2.6 0.5,2.3 2.2,1.8 0.4,3.4 3.3,2.5 5.8,2.3 -0.3,0.4 0.3,1.5 -0.2,1.8 -4.3,1.7 -8.1,6.7 -3.3,5.6 -0.2,3.5 1.2,2.9 2.4,1.5 0.3,2.9 1.1,2.9 3.3,1.6 0.3,2.8 2,2.9 3.4,0.1 0.7,3.2 2.9,2.1 3.2,-0.6 2.4,2.7 3,1.1 3.2,-1 3.1,0.8 4.6,0.5 2.6,-2.1 6.2,-1.5 -0.5,-3.9 -2.7,-4.3 -0.9,-0.1 -1.3,-0.8 -0.9,-1.1 1.8,-0.6 3.1,-2 3.1,-5.2 l 2.7,0.1 c 0.6,-0.2 1.8,-2 1.8,-2 l 1.4,1.9 2.8,0.6 -1.3,-3.07 c -0.1,-1.52 0.2,-3.02 -1.4,-4.52 -0.6,-0.6 -2,-1.4 -3.2,-1.4 l -7.5,-0.2 0.1,-0.9 7.4,-0.1 c 1.5,-2.5 2.9,-6 3.4,-6.3 0.4,0.4 -1.8,4.8 -1.5,6.6 1.4,0.3 3.3,0.9 4.1,0 0.5,-0.6 0.5,-1.4 -0.4,-3 5.8,-0.6 4.3,-3.1 3.3,-3.3 3.1,-1.1 4.1,-2.3 3.9,-4.4 3.3,-2.6 4.6,-4.6 2.1,-5.8 3.3,-2.9 6.4,-5.5 0.9,-5.3 1.6,-2.1 6,-4.4 0.6,-5.6 2.8,-2.2 3,-3.8 0,-3.6 0.7,-1.6 2.3,-5.1 0.4,-5.8 z m -39.1,28.4 c 0.6,-0.1 1.1,0.6 1,1.1 -1.5,5.3 3.2,7.9 6.4,10.8 0.5,0.3 0.5,0.9 0.2,1.3 -0.4,0.4 -1.1,0.4 -1.4,0 -5.1,-4.1 -8.4,-6.1 -7,-12.6 0.1,-0.3 0.4,-0.6 0.8,-0.6 z m -3.6,1.6 0.1,0 c 0.5,0 1,0.6 0.9,1.1 -1.5,5.1 2.9,8.1 5.6,11.2 0.5,0.3 0.5,1.02 0,1.42 -0.3,0.27 -1,0.17 -1.3,-0.2 -4.3,-4.52 -7.4,-6.72 -6,-12.82 0.1,-0.4 0.4,-0.6 0.7,-0.7 z m 26.8,10.3 c 0.8,0 1.2,0.5 1.2,1.1 0,0.7 -0.4,1.2 -1.2,1.2 -0.6,0 -1,-0.5 -1,-1.2 0,-0.6 0.4,-1.1 1,-1.1 z M 148.4,107 c 0,0 2,0.2 2.7,0.6 2.1,1 4.7,4.4 4.7,4.4 l -2.8,-0.5 -1.6,1.9 0.7,-2.7 z m -4.1,0.1 c 0,0 1.6,0.6 2.2,1 1.6,1.2 4,4.2 4,4.2 l -2.8,-0.5 -1.8,1.5 1.2,-2.6 z"
     id="bird"
     style="fill:#ffffff;fill-opacity:1;stroke:none" />
  <path
     d="m 150,1.436 -83.79,17.574 0,30.8 C 66.21,125.2 102.9,173.7 150,211 197.1,173.7 233.8,125.2 233.8,49.81 l 0,-30.8 L 150,1.436 z"
     id="mainback"
     style="fill:none;stroke:#000066;stroke-width:1px;stroke-linecap:butt;stroke-linejoin:miter;stroke-opacity:1" />
  <g
     transform="matrix(0.6072,0,0,0.6072,-1.843,0.8263)"
     id="textback"
     style="fill:none;stroke:#000066;stroke-width:1px;stroke-linecap:butt;stroke-linejoin:miter;stroke-opacity:1">
    <path
       d="M 59.66,135.6 C 47,135.5 35.83,139.5 30.81,143.3 6.606,161.8 -5.954,206.4 25.78,234.8 20.23,217 24.12,203 24.12,203 c -0.64,1.7 16.11,20.7 26.79,20.7 -13.36,-11 -18.65,-43 -10.35,-50.4 18.92,-16.9 31.37,-6.2 37.22,11.5 C 125.3,328.5 217,385.7 250,408 c 33,-22.3 124.7,-79.5 172.2,-223.2 5.9,-17.7 18.3,-28.4 37.2,-11.5 8.3,7.4 3.1,39.4 -10.3,50.4 10.7,0 27.4,-19 26.8,-20.7 0,0 3.9,14 -1.7,31.8 31.8,-28.4 19.6,-72.7 -5,-91.5 -5,-3.8 -16.2,-7.8 -28.9,-7.7 -14.3,0 -30.3,4.8 -40.2,19 C 381.6,181.1 369.6,280.4 250,366.3 130.4,280.4 118.4,181.1 99.91,154.6 89.99,140.4 74,135.6 59.66,135.6 z"
       id="path3777" />
    <path
       d="M 39.38,174.6 C 52.03,147.7 82.49,136.8 106.4,167"
       id="path3779" />
    <path
       d="M 460.6,174.6 C 448,147.7 417.5,136.8 393.6,167"
       id="path3825" />
  </g>
  <g
     transform="matrix(0.6072,0,0,0.6072,-1.843,0.8263)"
     id="branches"
     style="fill:#000066;fill-opacity:1;stroke:none">
    <path
       d="m 267.7,317.8 4.4,-3.7 C 210.3,269.3 167.1,206.8 153.3,131.3 l -2,0.1 c 12.9,81.8 57.7,140 116.4,186.4 z"
       id="path3000" />
    <path
       d="m 232.3,317.8 -4.4,-3.7 c 61.8,-44.8 105,-107.3 118.8,-182.8 l 2,0.1 c -12.9,81.8 -57.7,140 -116.4,186.4 z"
       id="path3907" />
  </g>
  <g
     transform="matrix(0.6072,0,0,0.6072,-1.843,0.8263)"
     id="dots"
     style="fill:#000066;fill-opacity:1;stroke:none">
    <path
       d="m 123,170.9 a 6.718,6.718 0 1 1 -13.4,0 6.718,6.718 0 1 1 13.4,0 z"
       transform="translate(-0.5,-1.591)"
       id="path3775" />
    <path
       d="m 190.8,47.31 a 10.7,10.7 0 1 1 -21.4,0 10.7,10.7 0 1 1 21.4,0 z"
       transform="translate(2.383,-2.868)"
       id="path2996" />
    <path
       d="m 190.8,47.31 a 10.7,10.7 0 1 1 -21.4,0 10.7,10.7 0 1 1 21.4,0 z"
       transform="translate(137.4,-2.868)"
       id="path3975" />
    <path
       d="m 123,170.9 a 6.718,6.718 0 1 1 -13.4,0 6.718,6.718 0 1 1 13.4,0 z"
       transform="translate(268,-1.591)"
       id="path3984" />
    <path
       d="m 123,170.9 a 6.718,6.718 0 1 1 -13.4,0 6.718,6.718 0 1 1 13.4,0 z"
       transform="translate(133.7,184.4)"
       id="path3986" />
  </g>
  <g
     transform="matrix(0.6072,0,0,0.6072,-1.843,0.8263)"
     id="cypruspolice"
     style="fill:#000066;fill-opacity:1;stroke:none">
    <path
       d="m 110.4,234.6 0.5,3.2 c -2.7,0.5 -5,0.3 -7,-0.7 -2,-1 -3.4,-2.7 -4.46,-5 -1.02,-2.4 -1.35,-4.5 -1.03,-6.5 0.36,-1.9 1.28,-3.7 2.79,-5.2 1.6,-1.7 3.4,-3 5.6,-4 2.3,-1 4.6,-1.5 6.7,-1.4 2.1,0.1 4,0.7 5.6,1.9 1.6,1.3 2.8,2.8 3.6,4.8 1,2.1 1.2,4.3 0.7,6.3 -0.5,2 -1.6,3.7 -3.4,5.3 l -2,-2.6 c 1.5,-1.2 2.3,-2.5 2.6,-3.8 0.4,-1.3 0.2,-2.6 -0.4,-4.2 -0.7,-1.6 -1.8,-2.9 -3.1,-3.7 -1.3,-0.7 -2.8,-1 -4.4,-0.8 -1.6,0.2 -3.1,0.6 -4.6,1.2 -1.9,0.9 -3.5,1.9 -4.7,3.1 -1.2,1.2 -1.8,2.6 -2.1,4 -0.2,1.5 0,2.9 0.6,4.3 0.7,1.6 1.8,2.7 3.3,3.5 1.4,0.6 3.2,0.8 5.2,0.3 z"
       id="path4144" />
    <path
       d="m 110.7,253.5 9,-4.9 7.9,-14.9 1.9,3.5 -4.2,7.7 c -0.8,1.4 -1.6,2.8 -2.4,4.1 1.4,0 3.1,0.1 5,0.3 l 8.6,0.8 1.7,3.2 -16.9,-1.8 -9.1,4.9 z"
       id="path4147" />
    <path
       d="m 119.1,268.5 20.6,-13.1 4.9,7.8 c 0.8,1.4 1.5,2.5 1.8,3.2 0.4,1.2 0.7,2.2 0.6,3.2 0,1 -0.3,2 -0.9,2.9 -0.6,1 -1.4,1.8 -2.4,2.4 -1.8,1.1 -3.6,1.6 -5.5,1.1 -1.9,-0.3 -3.8,-1.9 -5.6,-4.8 l -3.4,-5.2 -8.3,5.3 z m 12.6,-4.1 3.3,5.3 c 1.1,1.7 2.2,2.8 3.4,3.1 1.1,0.4 2.2,0.1 3.4,-0.6 0.9,-0.6 1.5,-1.3 1.8,-2.1 0.3,-0.8 0.4,-1.7 0.1,-2.5 -0.1,-0.5 -0.6,-1.3 -1.4,-2.6 l -3.3,-5.2 z"
       id="path4150" />
    <path
       d="m 132.5,289.3 19.7,-14.3 6.3,8.7 c 1.3,1.8 2.1,3.2 2.5,4.5 0.2,1.1 0.2,2.3 -0.3,3.5 -0.6,1.2 -1.3,2.2 -2.4,3 -1.4,1 -2.9,1.4 -4.5,1.2 -1.6,-0.2 -3.3,-1.2 -4.9,-2.9 0.2,1 0.2,1.7 0.2,2.3 -0.2,1.3 -0.5,2.6 -1.1,4 l -2.8,7.4 -2.5,-3.3 2.3,-5.6 c 0.6,-1.6 1,-2.9 1.3,-3.8 0.3,-0.9 0.4,-1.8 0.3,-2.3 0,-0.5 -0.1,-1.1 -0.3,-1.6 -0.1,-0.3 -0.5,-0.8 -0.9,-1.5 l -2.3,-3 -8.7,6.3 z m 12.9,-5.4 4.1,5.7 c 0.8,1.1 1.7,2 2.4,2.5 0.7,0.4 1.5,0.7 2.3,0.6 0.7,0 1.5,-0.2 2.1,-0.7 1,-0.7 1.5,-1.6 1.6,-2.7 0.1,-1.1 -0.4,-2.4 -1.5,-3.9 l -4.5,-6.2 z"
       id="path4153" />
    <path
       d="m 176.4,307.3 2.2,2.4 -10.5,9.3 c -1.9,1.7 -3.5,2.8 -4.9,3.3 -1.4,0.6 -3,0.6 -4.6,0.1 -1.6,-0.4 -3.3,-1.5 -4.9,-3.3 -1.4,-1.7 -2.4,-3.4 -2.8,-5 -0.3,-1.6 -0.1,-3.1 0.5,-4.6 0.7,-1.4 2,-3 4,-4.7 l 10.5,-9.4 2.1,2.4 -10.5,9.4 c -1.6,1.4 -2.6,2.5 -3.1,3.5 -0.5,1 -0.6,2 -0.4,3 0.3,1.2 0.9,2.2 1.8,3.3 1.5,1.7 3.1,2.6 4.5,2.6 1.5,0.1 3.4,-0.9 5.6,-3 z"
       id="path4156" />
    <path
       d="m 169.1,325.6 2.5,1.9 c -0.8,0.9 -1.1,1.9 -1.3,2.9 -0.2,0.9 0,1.9 0.5,3 0.6,1 1.3,2.1 2.4,3.1 0.9,0.8 1.8,1.3 2.8,1.6 0.9,0.5 1.8,0.6 2.5,0.3 0.8,-0.1 1.4,-0.5 1.9,-1 0.5,-0.6 0.8,-1.2 0.8,-1.9 0.1,-0.8 -0.1,-1.6 -0.6,-2.6 -0.3,-0.6 -1.1,-1.8 -2.4,-3.8 -1.3,-1.8 -2.2,-3.3 -2.5,-4.3 -0.4,-1.1 -0.6,-2.3 -0.4,-3.4 0.1,-1.1 0.7,-1.9 1.4,-2.8 0.8,-0.9 1.8,-1.5 3,-1.8 1.3,-0.4 2.5,-0.3 4,0.2 1.3,0.5 2.6,1.3 3.8,2.3 1.3,1.2 2.3,2.5 3,3.9 0.6,1.4 0.8,2.7 0.7,4 -0.3,1.4 -0.9,2.6 -1.7,3.7 L 187,329 c 0.9,-1.3 1.3,-2.5 1.1,-3.8 -0.2,-1.2 -1,-2.4 -2.3,-3.7 -1.5,-1.3 -2.8,-1.9 -4,-2 -1.1,-0.1 -2,0.3 -2.7,1.1 -0.6,0.6 -0.8,1.3 -0.8,2.2 0.1,0.8 1,2.4 2.5,4.5 1.6,2.2 2.6,3.8 3.1,4.8 0.5,1.4 0.7,2.7 0.6,3.9 -0.2,1.2 -0.7,2.3 -1.6,3.3 -0.9,0.9 -2,1.6 -3.2,1.9 -1.4,0.4 -2.8,0.4 -4.2,-0.1 -1.5,-0.4 -2.9,-1.3 -4.2,-2.4 -1.6,-1.5 -2.8,-2.9 -3.4,-4.4 -0.7,-1.5 -0.9,-3 -0.7,-4.5 0.2,-1.6 0.9,-2.9 1.9,-4.2 z"
       id="path4159" />
    <path
       d="m 330.1,337.4 -18.5,-15.9 6,-7 c 1.1,-1.2 2,-2.1 2.7,-2.6 0.9,-0.8 1.8,-1.3 2.8,-1.6 0.9,-0.2 1.9,-0.2 3,0.1 1.1,0.3 2.1,0.8 3,1.6 1.6,1.3 2.5,3 2.7,4.9 0.3,2 -0.8,4.2 -3,6.9 l -4.1,4.7 7.5,6.4 z m -7.6,-10.8 4.1,-4.8 c 1.4,-1.6 2.1,-2.9 2,-4.1 0.1,-1.1 -0.5,-2.2 -1.6,-3.1 -0.7,-0.6 -1.6,-1 -2.4,-1.1 -1,-0.1 -1.8,0 -2.5,0.6 -0.4,0.3 -1.1,1 -2.1,2.1 l -4.1,4.7 z"
       id="path4138" />
    <path
       d="m 334.2,312.3 c -2.7,-2.9 -4.1,-6 -4.1,-9.1 0,-3.2 1.3,-5.9 3.8,-8.3 1.6,-1.5 3.4,-2.6 5.5,-3 2.1,-0.4 4.1,-0.3 6.1,0.5 2,0.7 3.8,2 5.5,3.7 1.7,1.8 2.8,3.8 3.4,5.8 0.7,2.2 0.7,4.2 0,6.2 -0.6,2 -1.7,3.7 -3.3,5.2 -1.6,1.5 -3.5,2.5 -5.6,2.9 -2.1,0.5 -4.1,0.3 -6.1,-0.4 -1.9,-0.8 -3.7,-2 -5.2,-3.5 z m 2.4,-2.3 c 2.1,2.2 4.3,3.3 6.6,3.5 2.3,0.2 4.3,-0.6 6,-2.3 1.8,-1.6 2.7,-3.6 2.6,-5.9 0,-2.3 -1.1,-4.7 -3.2,-6.9 -1.4,-1.5 -2.8,-2.5 -4.3,-3.1 -1.6,-0.6 -3,-0.8 -4.5,-0.5 -1.5,0.3 -2.8,1 -4,2.1 -1.7,1.6 -2.6,3.5 -2.7,5.8 -0.1,2.2 1.1,4.7 3.5,7.3 z"
       id="path4141" />
    <path
       d="m 363.1,297 -20.1,-13.7 1.8,-2.6 17.8,12.1 6.7,-9.9 2.3,1.6 z"
       id="path4135" />
    <path
       d="m 375.5,278.4 -20.7,-12.9 1.7,-2.8 20.7,13 z"
       id="path4129" />
    <path
       d="m 382.3,250.5 2.2,-2.5 c 2,1.9 3.2,3.9 3.6,6.1 0.4,2.2 0,4.5 -1.2,6.7 -1.3,2.3 -2.8,3.9 -4.5,4.8 -1.7,1 -3.6,1.3 -5.9,1.1 -2.1,-0.2 -4.3,-0.9 -6.3,-2 -2.2,-1.2 -3.9,-2.6 -5.1,-4.4 -1.2,-1.7 -1.8,-3.6 -1.8,-5.7 -0.1,-2 0.4,-4 1.5,-5.9 1.1,-2.1 2.6,-3.6 4.6,-4.5 1.8,-0.9 3.9,-1 6.2,-0.5 l -0.9,3.1 c -1.8,-0.3 -3.3,-0.2 -4.5,0.3 -1.2,0.6 -2.2,1.6 -3,3 -0.9,1.7 -1.3,3.2 -1.1,4.8 0.2,1.5 0.8,2.8 1.9,4 1.1,1.2 2.4,2.2 3.8,2.9 1.8,1 3.5,1.6 5.2,1.8 1.6,0.2 3.1,-0.1 4.4,-0.8 1.2,-0.8 2.2,-1.8 2.9,-3.1 0.9,-1.6 1.2,-3.2 0.9,-4.8 -0.4,-1.6 -1.3,-3 -2.9,-4.4 z"
       id="path4132" />
    <path
       d="m 393.7,246.4 -22,-10.6 7.7,-15.9 2.6,1.3 -6.3,12.9 6.8,3.3 5.9,-12.1 2.5,1.2 -5.9,12.1 7.5,3.7 6.5,-13.5 2.6,1.3 z"
       id="path4126" />
  </g>
  <g
     transform="matrix(0.6072,0,0,0.6072,-1.843,0.8263)"
     id="1960"
     style="fill:#ffffff;fill-opacity:1;stroke:none">
    <path
       d="m 236.9,221.2 -1.9,0 0,-12.3 c -0.5,0.4 -1.1,0.9 -1.8,1.3 -0.8,0.5 -1.5,0.8 -2.1,1 l 0,-1.9 c 1.1,-0.5 2.1,-1.1 2.9,-1.8 0.8,-0.7 1.4,-1.4 1.7,-2.1 l 1.2,0 z"
       id="path4104" />
    <path
       d="m 240,217.6 1.9,-0.2 c 0.1,0.9 0.4,1.5 0.9,1.9 0.4,0.4 1,0.6 1.7,0.6 0.6,0 1.1,-0.2 1.5,-0.4 0.5,-0.3 0.8,-0.7 1.1,-1.1 0.3,-0.5 0.6,-1.1 0.8,-1.9 0.1,-0.7 0.2,-1.5 0.2,-2.3 0,-0.1 0,-0.2 0,-0.4 -0.4,0.6 -0.9,1.1 -1.5,1.5 -0.7,0.4 -1.4,0.6 -2.2,0.6 -1.3,0 -2.4,-0.5 -3.3,-1.5 -0.9,-0.9 -1.4,-2.1 -1.4,-3.7 0,-1.6 0.5,-2.9 1.4,-3.9 1,-0.9 2.1,-1.4 3.6,-1.4 1,0 1.9,0.3 2.8,0.8 0.8,0.6 1.5,1.4 1.9,2.4 0.4,1 0.7,2.5 0.7,4.4 0,2 -0.2,3.6 -0.7,4.8 -0.4,1.2 -1.1,2.1 -1.9,2.7 -0.9,0.7 -1.9,1 -3.1,1 -1.2,0 -2.2,-0.4 -3,-1.1 -0.8,-0.6 -1.2,-1.6 -1.4,-2.8 z m 7.9,-7 c 0,-1.1 -0.3,-2 -0.9,-2.6 -0.6,-0.7 -1.3,-1 -2.1,-1 -0.9,0 -1.6,0.3 -2.2,1 -0.7,0.7 -1,1.7 -1,2.8 0,1 0.3,1.8 0.9,2.4 0.6,0.6 1.4,1 2.2,1 0.9,0 1.7,-0.4 2.3,-1 0.5,-0.6 0.8,-1.5 0.8,-2.6 z"
       id="path4107" />
    <path
       d="m 260.9,209.3 -1.9,0.2 c -0.1,-0.8 -0.4,-1.4 -0.7,-1.7 -0.5,-0.5 -1.2,-0.8 -1.9,-0.8 -0.7,0 -1.2,0.1 -1.7,0.5 -0.6,0.4 -1.1,1.1 -1.4,1.9 -0.4,0.9 -0.5,2.1 -0.5,3.7 0.4,-0.7 1,-1.3 1.7,-1.6 0.6,-0.3 1.3,-0.5 2.1,-0.5 1.3,0 2.4,0.5 3.3,1.4 0.9,1 1.3,2.2 1.3,3.7 0,1 -0.2,1.9 -0.6,2.7 -0.4,0.9 -1,1.5 -1.8,2 -0.7,0.4 -1.6,0.7 -2.5,0.7 -1.6,0 -2.9,-0.6 -3.9,-1.8 -1.1,-1.2 -1.6,-3.1 -1.6,-5.9 0,-3 0.6,-5.2 1.7,-6.6 1,-1.2 2.3,-1.8 4,-1.8 1.2,0 2.2,0.3 3,1 0.8,0.7 1.3,1.7 1.4,2.9 z m -7.8,6.8 c 0,0.7 0.1,1.3 0.4,1.9 0.3,0.6 0.7,1.1 1.2,1.4 0.5,0.3 1,0.5 1.6,0.5 0.8,0 1.5,-0.4 2.1,-1 0.6,-0.7 0.8,-1.6 0.8,-2.7 0,-1.1 -0.2,-1.9 -0.8,-2.6 -0.6,-0.6 -1.3,-0.9 -2.2,-0.9 -0.9,0 -1.6,0.3 -2.2,0.9 -0.6,0.7 -0.9,1.5 -0.9,2.5 z"
       id="path4110" />
    <path
       d="m 262.2,213.4 c 0,-1.8 0.2,-3.3 0.6,-4.5 0.4,-1.1 0.9,-2 1.7,-2.6 0.8,-0.6 1.7,-0.9 2.9,-0.9 0.8,0 1.5,0.2 2.2,0.5 0.6,0.3 1.1,0.8 1.6,1.5 0.4,0.6 0.7,1.4 0.9,2.3 0.3,0.9 0.4,2.2 0.4,3.7 0,1.9 -0.2,3.4 -0.6,4.5 -0.4,1.1 -0.9,2 -1.7,2.6 -0.7,0.7 -1.7,1 -2.8,1 -1.6,0 -2.8,-0.6 -3.6,-1.7 -1.1,-1.3 -1.6,-3.4 -1.6,-6.4 z m 2,0 c 0,2.6 0.3,4.3 0.9,5.2 0.6,0.9 1.4,1.3 2.3,1.3 0.8,0 1.6,-0.5 2.2,-1.3 0.6,-0.9 0.9,-2.6 0.9,-5.2 0,-2.6 -0.3,-4.3 -0.9,-5.1 -0.6,-0.9 -1.4,-1.3 -2.3,-1.3 -0.9,0 -1.6,0.4 -2.1,1.1 -0.7,1 -1,2.7 -1,5.3 z"
       id="path4113" />
  </g>
  <g
     transform="matrix(0.6072,0,0,0.6072,-1.843,0.8263)"
     id="g4325"
     style="fill:#ffffff;fill-opacity:1;stroke:none">
    <path
       d="m 296.7,151.2 c -3,-0.1 -7.7,3 -7.1,5.7 1.7,0.5 8.2,-2.8 7.1,-5.7 z"
       id="path4189" />
    <path
       d="m 290.9,161.4 c -2.4,1.4 -6.1,0.8 -7.3,-1.8 3.6,-2.3 6.6,0 7.3,1.8 z"
       id="path4191" />
    <path
       d="m 286.8,152.7 c -2.5,0.7 -5.1,5.1 -2.8,7.5 3.3,-1.2 3.3,-4.9 2.8,-7.5 z"
       id="path4193" />
    <path
       d="m 282.8,165 c -2.2,0.9 -5.4,0.2 -6.1,-2.2 3.6,-2.3 5.4,0.4 6.1,2.2 z"
       id="path4195" />
    <path
       d="m 280.1,156.4 c -2.5,0.7 -5.1,5.1 -2.8,7.5 3.3,-1.2 3.3,-4.9 2.8,-7.5 z"
       id="path4197" />
    <path
       d="m 265.3,174.1 c -0.8,-3.6 1.5,-5.6 5.1,-5.1 -0.1,2.1 0.2,5.9 -5.1,5.1 z"
       id="path4199" />
  </g>
  <g
     transform="matrix(0.6072,0,0,0.6072,-1.843,0.8263)"
     id="g4287"
     style="fill:none;stroke:#000066;stroke-width:2;stroke-miterlimit:4;stroke-opacity:1;stroke-dasharray:none">
    <path
       d="m 159.7,165.3 c -3.9,-18.1 -21,-34.5 -27.8,-33 0,9.8 16.2,31 27.8,33 z"
       id="path3855" />
    <path
       d="m 175.1,205.5 c -3.9,-18.1 -23.2,-32 -30,-30.5 0,9.8 18.4,28.5 30,30.5 z"
       id="path3857" />
    <path
       d="m 199,245.8 c -3.3,-9.9 -29.1,-25.5 -35.9,-24 0,9.8 29.9,29.1 35.9,24 z"
       id="path3859" />
    <path
       d="m 226.6,282 c 0.3,-12.1 -30.2,-19.3 -37,-17.8 0,9.8 34.9,21.8 37,17.8 z"
       id="path3861" />
    <path
       d="m 152.2,131.5 c 8.8,-7.1 -0.3,-39.98 -3.3,-41.25 -3.2,2.16 -5.7,39.75 3.3,41.25 z"
       id="path3863" />
    <path
       d="m 173.4,124 c 5.2,18 -5.1,34.9 -12,40 -2.1,-20.9 9.9,-40 12,-40 z"
       id="path3865" />
    <path
       d="m 182.7,158.7 c 5.2,18 0.6,44.6 -7.3,44 -3.8,-17.4 3.2,-43 7.3,-44 z"
       id="path3867" />
    <path
       d="m 199.2,199.9 c 8.4,14 7.5,45.1 -0.4,44.5 -5.2,-11.9 -5.2,-40.5 0.4,-44.5 z"
       id="path3869" />
    <path
       d="m 222.4,234.9 c 5.4,0.5 16.2,45.6 7.8,45 -5.4,-0.9 -13.6,-39.5 -7.8,-45 z"
       id="path3871" />
    <path
       d="m 340.3,165.3 c 3.9,-18.1 21,-34.5 27.8,-33 0,9.8 -16.2,31 -27.8,33 z"
       id="path3909" />
    <path
       d="m 324.9,205.5 c 3.9,-18.1 23.2,-32 30,-30.5 0,9.8 -18.4,28.5 -30,30.5 z"
       id="path3911" />
    <path
       d="m 273.4,282 c -0.3,-12.1 30.2,-19.3 37,-17.8 0,9.8 -34.9,21.8 -37,17.8 z"
       id="path3915" />
    <path
       d="m 347.8,131.5 c -8.8,-7.1 0.3,-39.98 3.3,-41.25 3.2,2.16 5.7,39.75 -3.3,41.25 z"
       id="path3917" />
    <path
       d="m 326.6,124 c -5.2,18 5.1,34.9 12,40 2.1,-20.9 -9.9,-40 -12,-40 z"
       id="path3919" />
    <path
       d="m 317.3,158.7 c -5.2,18 -0.6,44.6 7.3,44 3.8,-17.4 -3.2,-43 -7.3,-44 z"
       id="path3921" />
    <path
       d="m 300.8,199.9 c -8.4,14 -7.5,45.1 0.4,44.5 5.2,-11.9 5.2,-40.5 -0.4,-44.5 z"
       id="path3923" />
    <path
       d="m 277.6,234.9 c -5.4,0.5 -16.2,45.6 -7.8,45 5.4,-0.9 13.6,-39.5 7.8,-45 z"
       id="path3925" />
    <path
       d="m 301.1,245.8 c 3.3,-9.9 29.1,-25.5 35.9,-24 0,9.8 -29.9,29.1 -35.9,24 z"
       id="path4276" />
  </g>
</svg>
