<?xml version="1.0" encoding="UTF-8" standalone="no"?>
<!-- Generator: Adobe Illustrator 23.1.1, SVG Export Plug-In . SVG Version: 6.00 Build 0)  -->

<svg
   xmlns:dc="http://purl.org/dc/elements/1.1/"
   xmlns:cc="http://creativecommons.org/ns#"
   xmlns:rdf="http://www.w3.org/1999/02/22-rdf-syntax-ns#"
   xmlns:svg="http://www.w3.org/2000/svg"
   xmlns="http://www.w3.org/2000/svg"
   xmlns:sodipodi="http://sodipodi.sourceforge.net/DTD/sodipodi-0.dtd"
   xmlns:inkscape="http://www.inkscape.org/namespaces/inkscape"
   version="1.1"
   id="Layer_1"
   x="0px"
   y="0px"
   viewBox="0 0 159.36524 75.000001"
   xml:space="preserve"
   sodipodi:docname="xm.svg"
   inkscape:version="0.92.4 (5da689c313, 2019-01-14)"
   width="159.36523"
   height="75"><metadata
   id="metadata85"><rdf:RDF><cc:Work
       rdf:about=""><dc:format>image/svg+xml</dc:format><dc:type
         rdf:resource="http://purl.org/dc/dcmitype/StillImage" /></cc:Work></rdf:RDF></metadata><defs
   id="defs83" /><sodipodi:namedview
   pagecolor="#ffffff"
   bordercolor="#666666"
   borderopacity="1"
   objecttolerance="10"
   gridtolerance="10"
   guidetolerance="10"
   inkscape:pageopacity="0"
   inkscape:pageshadow="2"
   inkscape:window-width="1366"
   inkscape:window-height="705"
   id="namedview81"
   showgrid="false"
   inkscape:zoom="1.7036339"
   inkscape:cx="122.35399"
   inkscape:cy="73.176639"
   inkscape:window-x="-8"
   inkscape:window-y="-8"
   inkscape:window-maximized="1"
   inkscape:current-layer="Layer_1" />
<style
   type="text/css"
   id="style2">
	.st0{fill:#FF0000;}
	.st1{fill:#FFFFFF;}
	.st2{fill:#D0D2D3;}
	.st3{fill:#58595B;}
</style>
<g
   id="g835"
   transform="scale(1.5936524)"><rect
     y="0"
     x="0"
     height="47.061707"
     width="100"
     id="rect895"
     style="opacity:1;fill:#000000;fill-opacity:1;stroke:none;stroke-width:1.89256513;stroke-linecap:round;stroke-linejoin:round;stroke-miterlimit:4;stroke-dasharray:none;stroke-dashoffset:0;stroke-opacity:1;paint-order:markers stroke fill" /><g
     transform="matrix(0.62748942,0,0,0.62748942,3.5657821,11.326183)"
     id="g78">
	<g
   id="g18">
		<g
   id="g10">
			<polygon
   style="fill:#ffffff"
   id="polygon4"
   points="82.8,8.6 78.8,0 65.2,0 73.6,17.3 "
   class="st1" />
			<path
   style="fill:#ffffff"
   inkscape:connector-curvature="0"
   id="path6"
   d="M 115.1,0 H 90.8 L 57.5,39 H 70.7 L 79.4,28.6 84.3,39 h 22.8 l 3.1,-17.4 2.8,9.6 8.3,-10 z M 96.4,35.9 88.3,18.7 102.3,2.5 Z"
   class="st1" />
			<polygon
   style="fill:#ffffff"
   id="polygon8"
   points="141.2,39 148,0 135.8,0 113.6,33.7 124.7,33.7 133.2,20.5 129.9,39 "
   class="st1" />
		</g>
		<g
   id="g16">
			<path
   style="fill:#ff0000"
   inkscape:connector-curvature="0"
   id="path12"
   d="m 17.5,1.4 c -0.2,1.7 -0.4,3.7 -0.2,5.5 0.3,2.6 1.9,3.9 4,4.7 0.6,0.2 1.6,0.6 2.4,0.4 0.4,-0.1 0.7,-0.3 0.9,-0.5 0.7,-0.5 1.6,-0.9 2.6,-1 1.6,-0.2 3.1,0.2 4.3,0.5 1.1,0.3 2.6,0.8 3.5,1.3 0.5,0.3 0.9,0.8 1.2,1.3 0.5,0.8 0.7,2.2 1.8,2.5 0.3,-1.1 0.1,-2.4 0.1,-3.6 0,-1.1 0.3,-2.3 0.5,-3.3 0.3,-1.5 0.7,-3.1 1.2,-4.5 0.1,-0.2 0.3,-1.4 0.7,-1.2 0.2,0.1 0.1,0.5 0.1,0.8 0,1 -0.1,1.7 -0.2,2.6 -0.2,2.3 -0.2,5 0.2,7 0.2,1.1 0.5,2.1 0.4,3.4 0,0.3 -0.2,0.7 -0.3,1 -0.1,0.3 0,0.5 -0.1,0.8 -0.1,0.3 -0.4,0.8 -0.6,1.1 -0.1,0.1 -0.2,0.3 -0.3,0.6 -0.1,0.2 -0.3,0.3 -0.3,0.6 0,0.4 0.7,1.1 1.1,1.2 1.6,0.5 3.4,0.7 4.3,1.6 0.6,0.6 1,1.3 1.1,2.3 0.1,0.9 -0.2,1.6 -0.5,2.3 -0.2,0.5 -0.4,1.8 -0.8,2 -0.3,0.2 -0.7,0.1 -1.1,0.3 -0.1,0.5 -0.3,0.8 -0.4,1.3 -0.3,0.4 -0.7,0.6 -1,1 0.1,0.8 -0.4,1.1 -1.1,1.1 -2.1,1.7 -6.2,0.6 -8,-0.6 -0.9,0.6 -1.9,1.1 -1.7,2.8 0.8,0.4 1.3,0.9 2.3,1.2 1.2,0.4 2.7,0.2 3.4,0.9 0.1,0.1 0.1,0.1 0.2,0.2 h 6 L 60.2,19.3 50.8,0 H 17.6 c 0,0.5 0,1 -0.1,1.4 z"
   class="st0" />
			<path
   style="fill:#ff0000"
   inkscape:connector-curvature="0"
   id="path14"
   d="M 1.9,38.7 C 3,37.6 4.5,36.8 6,36.1 c 1.2,-0.5 2.4,-1 3.3,-1.7 0.4,-0.3 0.7,-0.7 1.2,-0.8 0.9,-0.1 1.9,0.3 2.6,0.4 1.9,0.4 3.4,-0.6 4.4,-1.6 0.5,-0.5 1.1,-1 1.4,-1.7 0.4,-0.9 0.2,-2 0.2,-3.1 0,-2.2 0.8,-3.8 0.9,-5.9 0,-1.1 -0.2,-2.1 -0.1,-3.2 -1.1,-0.6 -2.4,-1.1 -3.3,-2.1 -0.9,-1 -1.9,-2.8 -1.6,-4.3 -0.7,-1 -1.2,-2.4 -1.3,-4 0,-1.6 0.5,-2.9 0.9,-4.4 0.4,-1.3 0.7,-2.6 1.1,-3.8 H 8.4 L 0,38.9 h 1.8 c 0,-0.1 0.1,-0.1 0.1,-0.2 z"
   class="st0" />
		</g>
	</g>
	
	
</g></g>
</svg>