<?xml version="1.0" encoding="UTF-8" standalone="no"?>
<svg
   xmlns:dc="http://purl.org/dc/elements/1.1/"
   xmlns:cc="http://creativecommons.org/ns#"
   xmlns:rdf="http://www.w3.org/1999/02/22-rdf-syntax-ns#"
   xmlns:svg="http://www.w3.org/2000/svg"
   xmlns="http://www.w3.org/2000/svg"
   xmlns:sodipodi="http://sodipodi.sourceforge.net/DTD/sodipodi-0.dtd"
   xmlns:inkscape="http://www.inkscape.org/namespaces/inkscape"
   sodipodi:docname="purpleBars.svg"
   inkscape:version="1.0 (1.0+r73+1)"
   id="svg4053"
   version="1.1"
   viewBox="0 0 226.02556 59.302113"
   height="59.302113mm"
   width="226.02556mm">
  <defs
     id="defs4047" />
  <sodipodi:namedview
     inkscape:guide-bbox="true"
     showguides="true"
     inkscape:window-maximized="1"
     inkscape:window-y="27"
     inkscape:window-x="67"
     inkscape:window-height="1025"
     inkscape:window-width="1853"
     showgrid="false"
     inkscape:document-rotation="0"
     inkscape:current-layer="layer1"
     inkscape:document-units="mm"
     inkscape:cy="53.481038"
     inkscape:cx="113.80432"
     inkscape:zoom="1.979899"
     inkscape:pageshadow="2"
     inkscape:pageopacity="0.0"
     borderopacity="1.0"
     bordercolor="#666666"
     pagecolor="#ffffff"
     id="base">
    <sodipodi:guide
       id="guide838"
       orientation="0,-1"
       position="49.763786,14.339478" />
    <sodipodi:guide
       id="guide840"
       orientation="0,-1"
       position="49.763797,19.034073" />
    <sodipodi:guide
       id="guide844"
       orientation="0,-1"
       position="48.260358,5.5025792" />
  </sodipodi:namedview>
  <metadata
     id="metadata4050">
    <rdf:RDF>
      <cc:Work
         rdf:about="">
        <dc:format>image/svg+xml</dc:format>
        <dc:type
           rdf:resource="http://purl.org/dc/dcmitype/StillImage" />
        <dc:title />
      </cc:Work>
    </rdf:RDF>
  </metadata>
  <g
     transform="translate(65.387779,-109.44418)"
     id="layer1"
     inkscape:groupmode="layer"
     inkscape:label="Layer 1">
    <rect
       style="opacity:1;vector-effect:none;fill:#d0c1d8;fill-opacity:1;stroke:none;stroke-width:1.14118;stroke-linecap:butt;stroke-linejoin:miter;stroke-miterlimit:4;stroke-dasharray:none;stroke-dashoffset:0;stroke-opacity:1;paint-order:stroke fill markers"
       id="rect1571"
       width="50.502262"
       height="4.1302743"
       x="-65.387779"
       y="110.28248" />
    <rect
       y="119.10735"
       x="-50.905846"
       height="4.1302795"
       width="36.020325"
       id="rect1573"
       style="opacity:1;vector-effect:none;fill:#d0c1d8;fill-opacity:1;stroke:none;stroke-width:1.14118;stroke-linecap:butt;stroke-linejoin:miter;stroke-miterlimit:4;stroke-dasharray:none;stroke-dashoffset:0;stroke-opacity:1;paint-order:stroke fill markers" />
    <rect
       style="opacity:1;vector-effect:none;fill:#d0c1d8;fill-opacity:1;stroke:none;stroke-width:1.14118;stroke-linecap:butt;stroke-linejoin:miter;stroke-miterlimit:4;stroke-dasharray:none;stroke-dashoffset:0;stroke-opacity:1;paint-order:stroke fill markers"
       id="rect1575"
       width="31.538597"
       height="4.1302795"
       x="-58.574608"
       y="127.9322" />
    <rect
       y="136.75708"
       x="-47.16256"
       height="4.1302795"
       width="31.538597"
       id="rect1577"
       style="opacity:1;vector-effect:none;fill:#d0c1d8;fill-opacity:1;stroke:none;stroke-width:1.14118;stroke-linecap:butt;stroke-linejoin:miter;stroke-miterlimit:4;stroke-dasharray:none;stroke-dashoffset:0;stroke-opacity:1;paint-order:stroke fill markers" />
    <rect
       style="opacity:1;vector-effect:none;fill:#d0c1d8;fill-opacity:1;stroke:none;stroke-width:0.988938;stroke-linecap:butt;stroke-linejoin:miter;stroke-miterlimit:4;stroke-dasharray:none;stroke-dashoffset:0;stroke-opacity:1;paint-order:stroke fill markers"
       id="rect1579"
       width="23.685184"
       height="4.1302795"
       x="-39.309166"
       y="145.58194" />
    <rect
       y="163.24371"
       x="-58.942711"
       height="4.1302795"
       width="43.318718"
       id="rect1581"
       style="opacity:1;vector-effect:none;fill:#d0c1d8;fill-opacity:1;stroke:none;stroke-width:1.33742;stroke-linecap:butt;stroke-linejoin:miter;stroke-miterlimit:4;stroke-dasharray:none;stroke-dashoffset:0;stroke-opacity:1;paint-order:stroke fill markers" />
    <rect
       style="opacity:1;vector-effect:none;fill:#d0c1d8;fill-opacity:1;stroke:none;stroke-width:1.0462;stroke-linecap:butt;stroke-linejoin:miter;stroke-miterlimit:4;stroke-dasharray:none;stroke-dashoffset:0;stroke-opacity:1;paint-order:stroke fill markers"
       id="rect1583"
       width="26.507504"
       height="4.1302795"
       x="-47.16256"
       y="154.41884" />
    <rect
       y="110.28248"
       x="-65.387779"
       height="4.1302743"
       width="50.502262"
       id="rect1585"
       style="opacity:1;vector-effect:none;fill:#d0c1d8;fill-opacity:1;stroke:none;stroke-width:1.14118;stroke-linecap:butt;stroke-linejoin:miter;stroke-miterlimit:4;stroke-dasharray:none;stroke-dashoffset:0;stroke-opacity:1;paint-order:stroke fill markers" />
  </g>
</svg>
